^D:\HOME\LARGEFILEEDITOR\LARGEFILEEDITORTEST\LFETESTER\PROPERTIES\RESOURCES.RESX
D:\HOME\LARGEFILEEDITOR\LARGEFILEEDITORTEST\LFETESTER\OBJ\X86\DEBUG\LFETESTER.PROPERTIES.RESOURCES.RESOURCES
^D:\HOME\LARGEFILEEDITOR\LARGEFILEEDITORTEST\LFETESTER\LARGETEXTBOX.RESX|D:\HOME\LARGEFILEEDITOR\LARGEFILEEDITORTEST\LFETESTER\PROPERTIES\RESOURCES.RESX
D:\HOME\LARGEFILEEDITOR\LARGEFILEEDITORTEST\LFETESTER\OBJ\X86\DEBUG\LFETESTER.LARGETEXTBOX.RESOURCES
D:\HOME\LARGEFILEEDITOR\LARGEFILEEDITORTEST\LFETESTER\OBJ\X86\DEBUG\LFETESTER.PROPERTIES.RESOURCES.RESOURCES
^D:\HOME\LARGEFILEEDITOR\LARGEFILEEDITORTEST\LFETESTER\FORM1.RESX|D:\HOME\LARGEFILEEDITOR\LARGEFILEEDITORTEST\LFETESTER\LARGETEXTBOX.RESX|D:\HOME\LARGEFILEEDITOR\LARGEFILEEDITORTEST\LFETESTER\PROPERTIES\RESOURCES.RESX
D:\HOME\LARGEFILEEDITOR\LARGEFILEEDITORTEST\LFETESTER\OBJ\X86\DEBUG\LFETESTER.FORM1.RESOURCES
D:\HOME\LARGEFILEEDITOR\LARGEFILEEDITORTEST\LFETESTER\OBJ\X86\DEBUG\LFETESTER.LARGETEXTBOX.RESOURCES
D:\HOME\LARGEFILEEDITOR\LARGEFILEEDITORTEST\LFETESTER\OBJ\X86\DEBUG\LFETESTER.PROPERTIES.RESOURCES.RESOURCES
